<svg xmlns="http://www.w3.org/2000/svg" xmlns:xlink="http://www.w3.org/1999/xlink" preserveAspectRatio="xMidYMid" width="336" height="64" viewBox="0 0 168 32">
  <defs>
    <style>
      .cls-1, .cls-2 {
        font-size: 41.667px;
      }

      .cls-2 {
        fill: #fff;
        font-family: "SignPainter-HouseScript";
      }
    </style>
  </defs>
  <text x="50" y="29" class="cls-1"><tspan class="cls-2">Recco</tspan></text>
</svg>
